<?xml version="1.0" encoding="iso-8859-1"?>
<!-- Generator: Adobe Illustrator 22.0.1, SVG Export Plug-In . SVG Version: 6.00 Build 0)  -->
<svg version="1.1" id="illustration" xmlns="http://www.w3.org/2000/svg" xmlns:xlink="http://www.w3.org/1999/xlink" x="0px"
	 y="0px" viewBox="0 0 177.701 122.784" style="enable-background:new 0 0 177.701 122.784;" xml:space="preserve">
<g id="monitor">
	<g id="graph">
		<circle style="fill:#FFFFFF;" cx="5.644" cy="56.451" r="5.033"/>
		<circle style="fill:#FFFFFF;" cx="44.536" cy="74.668" r="5.033"/>
		<circle style="fill:#FFFFFF;" cx="77.9" cy="46.097" r="5.033"/>
		<circle style="fill:#FFFFFF;" cx="172.65" cy="5.578" r="5.033"/>
		<circle style="fill:#FFFFFF;" cx="125.334" cy="35.031" r="5.033"/>
		<polyline style="fill:none;stroke:#FFFFFF;stroke-width:3;stroke-miterlimit:10;" points="5.873,55.68 44.765,74.44 
			78.184,45.568 125.184,34.568 173.794,5.807 		"/>
	</g>
	<g id="monitor_1_">
		<polygon style="fill:#FFFFFF;" points="89.35,89.352 89.35,91.009 89.35,94.43 89.35,96.087 93.363,92.72 90.998,90.735 		"/>
		<polygon style="fill:#FFFFFF;" points="84.862,96.088 87.383,93.972 87.383,91.468 84.862,89.352 		"/>
		<path style="fill:#FFFFFF;" d="M148.965,18.657H29.807c-3.06,0-5.564,2.504-5.564,5.564v66.302c0,3.06,2.504,5.564,5.564,5.564
			h48.452v18.314H58.785c-2.295,0-4.173,1.878-4.173,4.173c0,2.295,1.878,4.173,4.173,4.173h61.202c2.295,0,4.173-1.878,4.173-4.173
			c0-2.295-1.878-4.173-4.173-4.173h-19.473V96.087h48.452c3.06,0,5.564-2.504,5.564-5.564V24.221
			C154.529,21.161,152.025,18.657,148.965,18.657z M95.526,93.473l-6.527,5.477c-0.181,0.152-0.406,0.23-0.632,0.23
			c-0.141,0-0.283-0.03-0.416-0.092c-0.346-0.162-0.568-0.509-0.568-0.891V96.54l-2.873,2.41c-0.181,0.152-0.406,0.23-0.632,0.23
			c-0.141,0-0.283-0.03-0.416-0.092c-0.347-0.162-0.568-0.509-0.568-0.891V87.243c0-0.382,0.221-0.73,0.568-0.891
			c0.345-0.162,0.755-0.108,1.048,0.138l2.873,2.41v-1.657c0-0.382,0.221-0.73,0.568-0.891c0.347-0.161,0.755-0.108,1.048,0.138
			l6.527,5.477c0.222,0.187,0.351,0.463,0.351,0.753C95.877,93.011,95.748,93.286,95.526,93.473z M144.777,77.309
			c0,3.06-2.504,5.564-5.564,5.564H39.559c-3.06,0-5.564-2.504-5.564-5.564V30.017c0-3.06,2.504-5.564,5.564-5.564h99.654
			c3.06,0,5.564,2.504,5.564,5.564V77.309z"/>
	</g>
</g>
</svg>
